<?xml version="1.0" standalone="no"?>
<!DOCTYPE svg PUBLIC "-//W3C//DTD SVG 20010904//EN"
 "http://www.w3.org/TR/2001/REC-SVG-20010904/DTD/svg10.dtd">
<svg version="1.0" xmlns="http://www.w3.org/2000/svg"
 width="270.000000pt" height="108.000000pt" viewBox="0 0 270.000000 108.000000"
 preserveAspectRatio="xMidYMid meet" fill="#FF8C00">
<metadata>
Created by potrace 1.15, written by Peter Selinger 2001-2017
</metadata>
<g transform="translate(0.000000,108.000000) scale(0.100000,-0.100000)"
stroke="none">
<path fill="#FFFFFF" d="M1603 924 c-17 -17 -48 -79 -77 -153 -45 -112 -53 -125 -83 -138 -19
-7 -38 -25 -43 -39 -6 -14 -10 -90 -10 -170 0 -138 1 -146 23 -168 13 -13 30
-25 38 -28 10 -3 15 -26 19 -79 l5 -74 80 -3 c96 -4 105 4 105 90 l0 58 358
-2 357 -3 5 -75 5 -75 75 -3 c41 -1 82 2 89 7 10 6 16 33 19 75 4 60 7 67 38
91 l34 26 0 164 0 163 -39 32 c-32 24 -46 47 -71 113 -52 139 -77 186 -108
199 -17 7 -159 13 -409 16 l-382 4 -28 -28z m745 -80 c24 -4 36 -12 43 -32 6
-15 17 -43 25 -62 9 -19 22 -50 30 -69 9 -20 11 -38 6 -43 -15 -15 -844 -10
-859 5 -9 9 -3 32 27 102 21 49 45 94 53 100 14 10 611 10 675 -1z"/>
</g>
</svg>
